{
  "project_info": {
    "project_number": "797012522525",
    "firebase_url": "https://patm-9c5a0-default-rtdb.firebaseio.com",
    "project_id": "patm-9c5a0",
    "storage_bucket": "patm-9c5a0.appspot.com"
  },
  "client": [
    {
      "client_info": {
        "mobilesdk_app_id": "1:797012522525:android:d1b365b179ea3d319d38f4",
        "android_client_info": {
          "package_name": "com.example.practica_5"
        }
      },
      "oauth_client": [
        {
          "client_id": "797012522525-73qpnboonrb4no34c3i9umpvid93j09d.apps.googleusercontent.com",
          "client_type": 3
        }
      ],
      "api_key": [
        {
          "current_key": "AIzaSyCYOFTcrEQvLBgr0RZ46IQXVipabR_RIwM"
        }
      ],
      "services": {
        "appinvite_service": {
          "other_platform_oauth_client": [
            {
              "client_id": "797012522525-73qpnboonrb4no34c3i9umpvid93j09d.apps.googleusercontent.com",
              "client_type": 3
            }
          ]
        }
      }
    }
  ],
  "configuration_version": "1"
}